{
  "version": 7,
  "name": "abook-club.ru",
  "home": {
    "get": "http://abook-club.ru",
    "default": "tops/Recent"
  },
  "news": {
    "get": "http://abook-club.ru/club_news/#expand_all",
    "list": ".entry",
    "title": ".entry_header_full a",
    "details": ".entry_header_full a:regex(.*href=\"([^\"]*)\".*)",
    "date": ".entry_time:regex(.*,([^—]*).*)",
    "next": ".audiobooks_addon span a[style*=bold]+a:regex(.*href=\"([^\"]*)\".*)"
  },
  "login": {
    "details": "http://torrent.abook-club.ru/login.php",
    "post": "http://torrent.abook-club.ru/takelogin.php",
    "post_login": "username",
    "post_password": "password",
    "js": "if(document.querySelectorAll('a[href*=userdetails]').length==0) {\n  alert('Not Logged In');\n}"
  },
  "crawl": {
    "query": "engine = ?",
    "get": "crawls",
    "list": ".entry",
    "title": ".entry_header_full a",
    "details": ".entry_header_full a:regex(.*href=\"([^\"]*)\".*)",
    "image": "img[alt*=user]:regex([^>]*src=\"([^\"]*)\".*)",
    "date": ".entry_time:regex(.*,([^—]*).*)",
    "next": ".audiobooks_addon span a[style*=bold]+a:regex(.*href=\"([^\"]*)\".*)"
  },
  "crawls": {
    "Asr": "http://abook-club.ru/asr_abooks/#expand_all",
    "New": "http://abook-club.ru/new_abooks/#expand_all"
  },
  "top": {
    "get": "tops",
    "grid": "crawl",
    "details_js": "var ee = document.querySelectorAll('a[href*=details]')\nfor(var i = 0; i < ee.length; i++) {\n  var e = ee[i];\n  e.href = e.href.replace('details.php', 'download.php')\n}",
    "update": "details"
  },
  "tops": {
    "Recent": "substr(date,7,4)||substr(date,4,2)||substr(date,1,2)||substr(date,12,5) desc"
  },
  "details": {
    "torrent": "a[href*=download]:regex(.*href=\"([^\"]*)\".*)"
  },
  "search": {
    "get": "substr(date,7,4)||substr(date,4,2)||substr(date,1,2)||substr(date,12,5) desc",
    "grid": "crawl",
    "details_js": "var ee = document.querySelectorAll('a[href*=details]')\nfor(var i = 0; i < ee.length; i++) {\n  var e = ee[i];\n  e.href = e.href.replace('details.php', 'download.php')\n}",
    "update": "details"
  },
  "favs": {
    "query": "engine = ? and fav = 1",
    "get": "substr(date,7,4)||substr(date,4,2)||substr(date,1,2)||substr(date,12,5) desc",
    "grid": "crawl",
    "details_js": "var ee = document.querySelectorAll('a[href*=details]')\nfor(var i = 0; i < ee.length; i++) {\n  var e = ee[i];\n  e.href = e.href.replace('details.php', 'download.php')\n}",
    "update": "details"
  }
}
